<?xml version="1.0" encoding="utf-8"?>
<!-- Generator: Adobe Illustrator 23.0.1, SVG Export Plug-In . SVG Version: 6.00 Build 0)  -->
<svg version="1.1" id="Warstwa_1" xmlns="http://www.w3.org/2000/svg" xmlns:xlink="http://www.w3.org/1999/xlink" x="0px" y="0px"
	 viewBox="0 0 13.49 6.64" width="16" style="enable-background:new 0 0 13.49 6.64;" xml:space="preserve">
<style type="text/css">
	.st0{fill:#4DB378;}
</style>
<g>
	<path class="st0" d="M1,0.06c0.22,0,0.43,0.07,0.62,0.21l5.13,4.03l5.12-4.03c0.43-0.34,1.06-0.27,1.4,0.17
		c0.34,0.43,0.27,1.06-0.17,1.4L7.36,6.36C7,6.65,6.49,6.65,6.13,6.36L0.38,1.85c-0.43-0.34-0.51-0.97-0.17-1.4
		C0.41,0.19,0.7,0.06,1,0.06z"/>
</g>
</svg>
